…
Of the 185 cases there are 168 that have data in March 2014 and no data in February. Conversely there are 17 cases with data in February but not in March. Let’s take a case from each of the categories identified above and inspect the attributes returned for the month they are present.

simfin %>% filter(Ticker %in% c('ACPW', 'BXRO'), 
           between(publish.date, as.Date("2014-02-01"), as.Date("2014-03-31"))) %>% 
  select(Indicator.Name) %>% distinct(Indicator.Name)

## # A tibble: 51 x 1
##    Indicator.Name           
##    <chr>                    
##  1 Common Shares Outstanding
##  2 Revenues                 
##  3 COGS                     
##  4 SG&A                     
##  5 R&D                      
##  6 EBIT                     
##  7 EBITDA                   
##  8 Interest expense, net    
##  9 Abnormal Gains/Losses    
## 10 Income Taxes             
## # ... with 41 more rows
…
